<svg id="Checkbox_Active" data-name="Checkbox/Active" xmlns="http://www.w3.org/2000/svg" xmlns:xlink="http://www.w3.org/1999/xlink" width="16" height="16" viewBox="0 0 16 16">
  <defs>
    <clipPath id="clip-path">
      <rect id="Base" width="16" height="16" rx="8" fill="none"/>
    </clipPath>
    <clipPath id="clip-path-2">
      <circle id="Circle" cx="3" cy="3" r="3" fill="none"/>
    </clipPath>
  </defs>
  <g id="Base_Layout" data-name="Base / Layout">
    <g id="Group_38" data-name="Group 38">
      <rect id="Base-2" data-name="Base" width="16" height="16" rx="8" fill="none"/>
      <g id="Mask_Group_92" data-name="Mask Group 92" clip-path="url(#clip-path)">
        <g id="_Color" data-name="↳ 🎨Color">
          <rect id="Base-3" data-name="Base" width="86" height="86" fill="#717c84"/>
        </g>
      </g>
    </g>
  </g>
  <g id="Border">
    <g id="Border_Shape" data-name="Border Shape" fill="none" stroke="rgba(0,0,0,0.1)" stroke-miterlimit="10" stroke-width="1">
      <rect width="16" height="16" rx="8" stroke="none"/>
      <rect x="0.5" y="0.5" width="15" height="15" rx="7.5" fill="none"/>
    </g>
  </g>
  <g id="Icon">
    <rect id="Icon_Dot_for_Radio_background" data-name="Icon/Dot (for Radio) background" width="16" height="16" fill="none"/>
    <g id="Group_11" data-name="Group 11" transform="translate(5 5)">
      <circle id="Circle-2" data-name="Circle" cx="3" cy="3" r="3" fill="none"/>
      <g id="Mask_Group_65" data-name="Mask Group 65" clip-path="url(#clip-path-2)">
        <g id="_Color-2" data-name="↳ 🎨Color" transform="translate(-5 -5)">
          <rect id="Base-4" data-name="Base" width="86" height="86" fill="#fff"/>
        </g>
      </g>
    </g>
  </g>
</svg>
